{
  "breadcrumbs": [
    {
      "url": "/",
      "name": "makeserver"
    },
    {
      "url": "/testing",
      "name": "testing"
    },
    {
      "url": "/testing/pandoc",
      "name": "pandoc"
    }
  ],
  "@context": {
    "@base": "/testing/pandoc/2023/",
    "@vocab": "http://activearchives.org/terms/makeserver/"
  },
  "@id": "",
  "name": "2023",
  "children": [
    {
      "@id": "08",
      "name": "08",
      "editable": false,
      "binary": false,
      "size": 4096,
      "mtime": 1692978467.434404,
      "atime": 1692978479.8979127,
      "dir": true
    },
    {
      "@id": "2023-08-25.md",
      "name": "2023-08-25.md",
      "editable": true,
      "binary": false,
      "size": 0,
      "mtime": 1692969620.8696158,
      "atime": 1692976911.0907266,
      "dir": false
    }
  ]
}